<?xml version="1.0" standalone="no"?>
<!DOCTYPE svg PUBLIC "-//W3C//DTD SVG 20010904//EN"
 "http://www.w3.org/TR/2001/REC-SVG-20010904/DTD/svg10.dtd">
<svg version="1.0" xmlns="http://www.w3.org/2000/svg"
 width="64.000000pt" height="64.000000pt" viewBox="0 0 64.000000 64.000000"
 preserveAspectRatio="xMidYMid meet">

<g transform="translate(0.000000,64.000000) scale(0.100000,-0.100000)"
fill="#000000" stroke="none">
<path d="M202 554 c-93 -46 -142 -127 -142 -234 0 -152 108 -260 260 -260 152
0 259 108 260 261 0 151 -108 258 -261 259 -50 0 -77 -6 -117 -26z m235 -34
c153 -88 153 -312 0 -400 -74 -43 -160 -43 -234 0 -153 88 -153 312 0 400 43
25 63 30 117 30 54 0 74 -5 117 -30z"/>
<path d="M306 494 c-9 -24 -7 -87 4 -104 9 -13 11 -13 20 0 18 27 10 120 -10
120 -4 0 -11 -7 -14 -16z"/>
<path d="M218 450 c-33 -20 -58 -75 -58 -130 0 -97 63 -160 160 -160 98 0 160
63 160 161 0 60 -33 122 -71 134 -29 10 -38 -4 -14 -23 56 -46 72 -125 39
-182 -48 -81 -180 -81 -228 0 -33 56 -16 141 36 178 34 25 14 44 -24 22z"/>
</g>
</svg>
